<svg width="15" height="15" viewBox="0 0 15 15" fill="none" xmlns="http://www.w3.org/2000/svg">
<path d="M7.5 7.03125H12.6562V5.625H7.5V7.03125ZM11.7188 6.09375H12.1875V6.5625H11.7188V6.09375ZM10.7812 6.09375H11.25V6.5625H10.7812V6.09375ZM9.84375 6.09375H10.3125V6.5625H9.84375V6.09375ZM8.90625 6.09375H9.375V6.5625H8.90625V6.09375ZM7.96875 6.09375H8.4375V6.5625H7.96875V6.09375Z" fill="#666666"/>
<path d="M14.0625 3.28125H0.9375V12.8906C0.9375 13.0771 1.01158 13.2559 1.14344 13.3878C1.2753 13.5197 1.45414 13.5938 1.64062 13.5938H13.3594C13.5459 13.5938 13.7247 13.5197 13.8566 13.3878C13.9884 13.2559 14.0625 13.0771 14.0625 12.8906V3.28125ZM2.8125 11.25H2.34375V10.7812H2.8125V11.25ZM2.8125 10.3125H2.34375V8.90625H2.8125V10.3125ZM5.15625 8.4743V9.60938C5.15628 9.64573 5.14786 9.6816 5.13164 9.71414L4.94953 10.0781L5.13164 10.4421C5.14786 10.4746 5.15628 10.5105 5.15625 10.5469V11.7188C5.15624 11.7809 5.13154 11.8405 5.08758 11.8845L4.38445 12.5876C4.3405 12.6315 4.2809 12.6562 4.21875 12.6562C4.1566 12.6562 4.097 12.6315 4.05305 12.5876L3.34992 11.8845C3.30596 11.8405 3.28126 11.7809 3.28125 11.7188V11.25C3.28122 11.2136 3.28964 11.1778 3.30586 11.1452L3.48797 10.7812L3.30586 10.4173C3.28964 10.3847 3.28122 10.3489 3.28125 10.3125V8.4743C2.78775 8.25892 2.38346 7.88018 2.13636 7.40177C1.88926 6.92336 1.81443 6.37446 1.92444 5.84736C2.03445 5.32027 2.3226 4.84713 2.74043 4.5075C3.15826 4.16787 3.6803 3.98246 4.21875 3.98246C4.7572 3.98246 5.27924 4.16787 5.69707 4.5075C6.1149 4.84713 6.40305 5.32027 6.51306 5.84736C6.62307 6.37446 6.54824 6.92336 6.30114 7.40177C6.05404 7.88018 5.64975 8.25892 5.15625 8.4743ZM9.84375 11.7188H7.03125V11.25H9.84375V11.7188ZM9.84375 10.7812H7.03125V10.3125H9.84375V10.7812ZM9.84375 9.84375H7.03125V9.375H9.84375V9.84375ZM9.84375 8.90625H7.03125V8.4375H9.84375V8.90625ZM13.125 11.7188H10.3125V11.25H13.125V11.7188ZM13.125 10.7812H10.3125V10.3125H13.125V10.7812ZM13.125 9.84375H10.3125V9.375H13.125V9.84375ZM13.125 8.90625H10.3125V8.4375H13.125V8.90625ZM13.125 7.26562C13.125 7.32779 13.1003 7.3874 13.0564 7.43135C13.0124 7.47531 12.9528 7.5 12.8906 7.5H7.26562C7.20346 7.5 7.14385 7.47531 7.0999 7.43135C7.05594 7.3874 7.03125 7.32779 7.03125 7.26562V5.39062C7.03125 5.32846 7.05594 5.26885 7.0999 5.2249C7.14385 5.18094 7.20346 5.15625 7.26562 5.15625H12.8906C12.9528 5.15625 13.0124 5.18094 13.0564 5.2249C13.1003 5.26885 13.125 5.32846 13.125 5.39062V7.26562Z" fill="#666666"/>
<path d="M14.0625 2.10938C14.0625 1.92289 13.9884 1.74405 13.8566 1.61219C13.7247 1.48033 13.5459 1.40625 13.3594 1.40625H1.64062C1.45414 1.40625 1.2753 1.48033 1.14344 1.61219C1.01158 1.74405 0.9375 1.92289 0.9375 2.10938V2.8125H14.0625V2.10938ZM2.34375 2.34375H1.875V1.875H2.34375V2.34375ZM3.28125 2.34375H2.8125V1.875H3.28125V2.34375ZM4.21875 2.34375H3.75V1.875H4.21875V2.34375Z" fill="#666666"/>
<path d="M4.21873 4.45313C3.77654 4.45288 3.3485 4.60902 3.01033 4.89393C2.67216 5.17884 2.44564 5.57417 2.37085 6.00999C2.29605 6.44581 2.37779 6.89405 2.60161 7.27541C2.82543 7.65677 3.17692 7.9467 3.59389 8.0939C3.63956 8.11009 3.6791 8.14003 3.70705 8.17961C3.735 8.21919 3.75 8.26646 3.74998 8.31492V10.2572L3.95975 10.6765C3.976 10.709 3.98447 10.7449 3.98447 10.7812C3.98447 10.8176 3.976 10.8535 3.95975 10.886L3.74998 11.3053V11.6217L4.21873 12.0905L4.68748 11.6217V10.6022L4.47772 10.1829C4.46146 10.1504 4.453 10.1145 4.453 10.0781C4.453 10.0417 4.46146 10.0059 4.47772 9.97335L4.68748 9.55405V8.31492C4.68746 8.26646 4.70246 8.21919 4.73041 8.17961C4.75837 8.14003 4.7979 8.11009 4.84358 8.0939C5.26055 7.9467 5.61203 7.65677 5.83585 7.27541C6.05967 6.89405 6.14142 6.44581 6.06662 6.00999C5.99182 5.57417 5.7653 5.17884 5.42713 4.89393C5.08896 4.60902 4.66093 4.45288 4.21873 4.45313ZM4.21873 6.5625C4.07967 6.5625 3.94373 6.52126 3.8281 6.444C3.71247 6.36674 3.62235 6.25693 3.56913 6.12845C3.51591 5.99997 3.50199 5.85859 3.52912 5.7222C3.55625 5.58581 3.62321 5.46052 3.72155 5.36219C3.81988 5.26386 3.94517 5.19689 4.08156 5.16976C4.21795 5.14263 4.35933 5.15655 4.48781 5.20977C4.61629 5.26299 4.7261 5.35311 4.80336 5.46874C4.88062 5.58437 4.92186 5.72031 4.92186 5.85937C4.92186 6.04585 4.84778 6.2247 4.71592 6.35656C4.58406 6.48842 4.40521 6.5625 4.21873 6.5625Z" fill="#666666"/>
<path d="M4.21875 6.09375C4.34819 6.09375 4.45312 5.98882 4.45312 5.85938C4.45312 5.72993 4.34819 5.625 4.21875 5.625C4.08931 5.625 3.98438 5.72993 3.98438 5.85938C3.98438 5.98882 4.08931 6.09375 4.21875 6.09375Z" fill="#666666"/>
</svg>
