<svg width="15" height="15" viewBox="0 0 15 15" fill="none" xmlns="http://www.w3.org/2000/svg">
<g clip-path="url(#clip0)">
<path d="M13.1887 3.6755L11.3244 1.81114L7.85281 5.31178L9.71751 7.17636L13.1887 3.6755Z" fill="#FFFFFF"/>
<path d="M6.18243 8.271C6.03148 8.63343 6.39541 8.9969 6.75761 8.84549L8.98934 7.69101L7.33589 6.03757L6.18243 8.271Z" fill="#FFFFFF"/>
<path d="M14.8713 1.99299C15.0429 1.82133 15.0429 1.54312 14.8713 1.37146L13.6284 0.128746C13.4568 -0.0429153 13.1786 -0.0429153 13.0069 0.128746L11.9459 1.18973L13.8102 3.05409L14.8713 1.99299Z" fill="#FFFFFF"/>
<path d="M1.31833 12.334H1.75778V14.5605C1.75778 14.7381 1.86467 14.8987 2.02901 14.9664C2.19094 15.0341 2.38103 14.998 2.50794 14.8712L5.04521 12.334H10.166C10.8929 12.334 11.4843 11.7425 11.4843 11.0156V6.65233L10.0981 8.03855C9.97716 8.15963 9.83594 8.25484 9.67755 8.32133L7.16145 9.62595C6.93269 9.72472 6.76103 9.75951 6.58593 9.75951C6.45513 9.75951 6.32901 9.73433 6.20713 9.69725H3.07614C2.83318 9.69725 2.63669 9.50064 2.63669 9.2578C2.63669 9.01484 2.83318 8.81835 3.07614 8.81835H5.30145C5.2147 8.53064 5.25189 8.21902 5.37148 7.93303L6.72761 5.2993C6.76618 5.20191 6.86151 5.06023 6.98213 4.93972L8.37693 3.54492H1.31833C0.5914 3.54492 -3.05176e-05 4.13635 -3.05176e-05 4.86328V11.0156C-3.05176e-05 11.7425 0.5914 12.334 1.31833 12.334Z" fill="#FFFFFF"/>
</g>
<defs>
<clipPath id="clip0">
<rect width="15" height="15" fill="white"/>
</clipPath>
</defs>
</svg>
